<?xml version="1.0" encoding="UTF-8" standalone="no"?>
<svg
   xmlns:dc="http://purl.org/dc/elements/1.1/"
   xmlns:cc="http://creativecommons.org/ns#"
   xmlns:rdf="http://www.w3.org/1999/02/22-rdf-syntax-ns#"
   xmlns:svg="http://www.w3.org/2000/svg"
   xmlns="http://www.w3.org/2000/svg"
   xmlns:sodipodi="http://sodipodi.sourceforge.net/DTD/sodipodi-0.dtd"
   xmlns:inkscape="http://www.inkscape.org/namespaces/inkscape"
   width="160mm"
   height="136mm"
   viewBox="0 0 160 136"
   version="1.1"
   id="svg8"
   inkscape:version="1.0.1 (c497b03c, 2020-09-10)"
   sodipodi:docname="signal5.svg">
  <defs
     id="defs2" />
  <sodipodi:namedview
     id="base"
     pagecolor="#ffffff"
     bordercolor="#666666"
     borderopacity="1.0"
     inkscape:pageopacity="0.0"
     inkscape:pageshadow="2"
     inkscape:zoom="0.59758027"
     inkscape:cx="294.81509"
     inkscape:cy="274.62903"
     inkscape:document-units="mm"
     inkscape:current-layer="layer1"
     inkscape:document-rotation="0"
     showgrid="false"
     inkscape:pagecheckerboard="true"
     inkscape:window-width="1440"
     inkscape:window-height="783"
     inkscape:window-x="0"
     inkscape:window-y="23"
     inkscape:window-maximized="0" />
  <metadata
     id="metadata5">
    <rdf:RDF>
      <cc:Work
         rdf:about="">
        <dc:format>image/svg+xml</dc:format>
        <dc:type
           rdf:resource="http://purl.org/dc/dcmitype/StillImage" />
        <dc:title></dc:title>
      </cc:Work>
    </rdf:RDF>
  </metadata>
  <g
     inkscape:label="Слой 1"
     inkscape:groupmode="layer"
     id="layer1">
    <g
       id="g77"
       transform="matrix(1.9986958,0,0,1.8312427,0.03147441,-5.5946763)">
      <g
         id="g16">
	<rect
   x="66.5"
   y="5.5"
   style="fill:#e1ebf2"
   width="11"
   height="69"
   id="rect10" />

	<g
   id="g14">
		<path
   style="fill:#a3b7cc"
   d="M 77,6 V 74 H 67 V 6 H 77 M 78,5 H 66 v 70 h 12 z"
   id="path12" />

	</g>

</g>
      <g
         id="g24">
	<rect
   x="50.5"
   y="21.5"
   style="fill:#e1ebf2"
   width="11"
   height="53"
   id="rect18" />

	<g
   id="g22">
		<path
   style="fill:#a3b7cc"
   d="M 61,22 V 74 H 51 V 22 h 10 m 1,-1 H 50 v 54 h 12 z"
   id="path20" />

	</g>

</g>
      <g
         id="g32">
	<rect
   x="34.5"
   y="35.5"
   style="fill:#e1ebf2"
   width="11"
   height="39"
   id="rect26" />

	<g
   id="g30">
		<path
   style="fill:#a3b7cc"
   d="M 45,36 V 74 H 35 V 36 h 10 m 1,-1 H 34 v 40 h 12 z"
   id="path28" />

	</g>

</g>
      <g
         id="g40">
	<rect
   x="18.5"
   y="49.5"
   style="fill:#e1ebf2"
   width="11"
   height="25"
   id="rect34" />

	<g
   id="g38">
		<path
   style="fill:#a3b7cc"
   d="M 29,50 V 74 H 19 V 50 h 10 m 1,-1 H 18 v 26 h 12 z"
   id="path36" />

	</g>

</g>
      <g
         id="g48">
	<rect
   x="2.5"
   y="59.5"
   style="fill:#e1ebf2"
   width="11"
   height="15"
   id="rect42" />

	<g
   id="g46">
		<path
   style="fill:#a3b7cc"
   d="M 13,60 V 74 H 3 V 60 h 10 m 1,-1 H 2 v 16 h 12 z"
   id="path44" />

	</g>

</g>
    </g>
    <rect
       style="fill:#808000;fill-opacity:1;stroke:#000000;stroke-width:1.01693;stroke-miterlimit:4;stroke-dasharray:none;stroke-opacity:1"
       id="rect80"
       width="23.98435"
       height="29.299885"
       x="4.0288668"
       y="102.44866" />
    <rect
       style="fill:#808000;stroke:#000000;stroke-width:1.01693;stroke-miterlimit:4;stroke-dasharray:none"
       id="rect82"
       width="23.98435"
       height="47.612312"
       x="36.007999"
       y="84.136246" />
    <rect
       style="fill:#808000;stroke:#000000;stroke-width:1.01693;stroke-miterlimit:4;stroke-dasharray:none"
       id="rect84"
       width="23.98435"
       height="73.24971"
       x="67.987129"
       y="58.498821" />
    <rect
       style="fill:#808000;stroke:#000000;stroke-width:1.01693;stroke-miterlimit:4;stroke-dasharray:none"
       id="rect88"
       width="23.98435"
       height="98.887108"
       x="99.966286"
       y="32.861416" />
    <rect
       style="fill:#808000;stroke:#000000;stroke-width:1.01693;stroke-miterlimit:4;stroke-dasharray:none"
       id="rect90"
       width="23.98435"
       height="128.18697"
       x="131.94537"
       y="3.5615501" />
  </g>
  <g
     inkscape:groupmode="layer"
     id="layer2"
     inkscape:label="Слой 2"
     style="display:inline" />
</svg>
